[{
    'title':'厨余垃圾',

    'children':[{
        'title':'厨余垃圾数据驾驶舱',
        'href':'./view/food_dashboard.html',
        'children':[]
        },{
            'title':'监控中心',
            'href':'',
            'children':[{
                'title':'地图监控',
                'href':'./view/food_map.html',
                'children':[]
            },{
                'title':'设备监控',
                'href':'./view/food_machine.html',
                'children':[]
            }]
        },{
                'title':'运营监控',
                'href':'',
                'children':[{
                    'title':'上料回收记录',
                    'href':'./view/food_recoverylog.html',
                    'children':[]
                }]
            }]
},{
        'title':'车辆管理',
        'href':'',
        'children':[{
            'title':'监控中心',
            'href':'',
            'children':[{
                'title':'实时车辆',
                'href':'./view/food_map.html',
                'children':[]
            },{
                'title':'历史轨迹',
                'href':'./view/food_map.html',
                'children':[]
            }]
        },{
            'title':'信息报表',
            'href':'',
            'children':[{
                'title':'油量分析',
                'href':'./view/food_map.html',
                'children':[]
            },{
                'title':'超速分析',
                'href':'./view/food_map.html',
                'children':[]
            }]
        },{
            'title':'信息维护',
            'href':'',
            'children':[{
                'title':'车队信息',
                'href':'./view/food_map.html',
                'children':[]
            },{
                'title':'车辆信息',
                'href':'./view/food_map.html',
                'children':[]
            },{
                'title':'信息卡信息',
                'href':'./view/food_machine.html',
                'children':[]
            },{
                'title':'终端设备信息',
                'href':'./view/food_recoverylog.html',
                'children':[]
            },{
                'title':'驾驶员信息',
                'href':'./view/food_recoverylog.html',
                'children':[]
            },{
                'title':'安装人员信息',
                'href':'./view/food_recoverylog.html',
                'children':[]
            }]
        }]
    }]